{
    "validators": [
        {
            "type": "aws-ec2",
            "parameters": {
                "rules": [
                    {
                        "type": "has-role-with",
                        "parameters": {
                            "_comment": "This maps to the format of an IAM role created through CFN",
                            "name": "MyCfnStack-(?<role_type>[A-Za-z0-9]+)Role-[A-Z0-9]+"
                        }
                    }
                ]
            }
        }
    ],
    "content": [
        {
            "authorities": "userland",
            "names": [
                "!<env[:captures][:role_type]>.us-west-2.aws.du.boxframe.io"
            ],
            "actions": [
                "request", "revoke"
            ]
        }
    ]
}